%YAML 1.1
%TAG !u! tag:unity3d.com,2011:
--- !u!1001 &8359779565481992085
PrefabInstance:
  m_ObjectHideFlags: 0
  serializedVersion: 2
  m_Modification:
    m_TransformParent: {fileID: 0}
    m_Modifications:
    - target: {fileID: 2376408783022628303, guid: c7190c7182dc47944b0a50b8b43c2a0a,
        type: 3}
      propertyPath: m_Name
      value: Indoor Door Left
      objectReference: {fileID: 0}
    - target: {fileID: 2389456291377549788, guid: c7190c7182dc47944b0a50b8b43c2a0a,
        type: 3}
      propertyPath: m_RootOrder
      value: 0
      objectReference: {fileID: 0}
    - target: {fileID: 2389456291377549788, guid: c7190c7182dc47944b0a50b8b43c2a0a,
        type: 3}
      propertyPath: m_LocalPosition.x
      value: -45.366
      objectReference: {fileID: 0}
    - target: {fileID: 2389456291377549788, guid: c7190c7182dc47944b0a50b8b43c2a0a,
        type: 3}
      propertyPath: m_LocalPosition.y
      value: 17.139
      objectReference: {fileID: 0}
    - target: {fileID: 2389456291377549788, guid: c7190c7182dc47944b0a50b8b43c2a0a,
        type: 3}
      propertyPath: m_LocalPosition.z
      value: 5.464
      objectReference: {fileID: 0}
    - target: {fileID: 2389456291377549788, guid: c7190c7182dc47944b0a50b8b43c2a0a,
        type: 3}
      propertyPath: m_LocalRotation.w
      value: -0.00000005960465
      objectReference: {fileID: 0}
    - target: {fileID: 2389456291377549788, guid: c7190c7182dc47944b0a50b8b43c2a0a,
        type: 3}
      propertyPath: m_LocalRotation.x
      value: 0.00000005960465
      objectReference: {fileID: 0}
    - target: {fileID: 2389456291377549788, guid: c7190c7182dc47944b0a50b8b43c2a0a,
        type: 3}
      propertyPath: m_LocalRotation.y
      value: 0.7071068
      objectReference: {fileID: 0}
    - target: {fileID: 2389456291377549788, guid: c7190c7182dc47944b0a50b8b43c2a0a,
        type: 3}
      propertyPath: m_LocalRotation.z
      value: 0.7071068
      objectReference: {fileID: 0}
    - target: {fileID: 2389456291377549788, guid: c7190c7182dc47944b0a50b8b43c2a0a,
        type: 3}
      propertyPath: m_LocalEulerAnglesHint.x
      value: -90
      objectReference: {fileID: 0}
    - target: {fileID: 2389456291377549788, guid: c7190c7182dc47944b0a50b8b43c2a0a,
        type: 3}
      propertyPath: m_LocalEulerAnglesHint.y
      value: 90.00001
      objectReference: {fileID: 0}
    - target: {fileID: 2389456291377549788, guid: c7190c7182dc47944b0a50b8b43c2a0a,
        type: 3}
      propertyPath: m_LocalEulerAnglesHint.z
      value: 90.00001
      objectReference: {fileID: 0}
    - target: {fileID: 6830999020486091146, guid: c7190c7182dc47944b0a50b8b43c2a0a,
        type: 3}
      propertyPath: m_Drag
      value: 0.1
      objectReference: {fileID: 0}
    - target: {fileID: 6830999020486091146, guid: c7190c7182dc47944b0a50b8b43c2a0a,
        type: 3}
      propertyPath: m_Mass
      value: 50
      objectReference: {fileID: 0}
    - target: {fileID: 6830999020486091146, guid: c7190c7182dc47944b0a50b8b43c2a0a,
        type: 3}
      propertyPath: m_UseGravity
      value: 0
      objectReference: {fileID: 0}
    - target: {fileID: 7524997068079331246, guid: c7190c7182dc47944b0a50b8b43c2a0a,
        type: 3}
      propertyPath: m_Layer
      value: 5
      objectReference: {fileID: 0}
    - target: {fileID: 7641886289678632063, guid: c7190c7182dc47944b0a50b8b43c2a0a,
        type: 3}
      propertyPath: m_Layer
      value: 5
      objectReference: {fileID: 0}
    - target: {fileID: 8606222079484180125, guid: c7190c7182dc47944b0a50b8b43c2a0a,
        type: 3}
      propertyPath: m_ConnectedAnchor.y
      value: -0.012340516
      objectReference: {fileID: 0}
    - target: {fileID: 8606222079484180125, guid: c7190c7182dc47944b0a50b8b43c2a0a,
        type: 3}
      propertyPath: m_ConnectedAnchor.z
      value: -0.359999
      objectReference: {fileID: 0}
    - target: {fileID: 8606222079484180125, guid: c7190c7182dc47944b0a50b8b43c2a0a,
        type: 3}
      propertyPath: m_Limits.bounceMinVelocity
      value: 0
      objectReference: {fileID: 0}
    m_RemovedComponents: []
  m_SourcePrefab: {fileID: 100100000, guid: c7190c7182dc47944b0a50b8b43c2a0a, type: 3}
